LocalHost,LocalPort,Expected RemoteHost,Expected RemotePort,Current RemoteHost,Current RemotePort,Link Speed,Link State,In-Errors,Out-Errors,SFP Type,SFP Vendor-Name,SFP Vendor-PN,Status
leaf01,eth0,MTX-F1-LAB-LAB1-SW07-144-81,1/1/4,MTX-F1-LAB-LAB1-SW07-144-81,1/1/4,1G,up,0,0,N/A,N/A,N/A,PASS
leaf01,swp14,MTX-DMZ-SW01,Eth1/14,N/A,N/A,N/A,down,0,0,N/A,N/A,N/A,FAIL
leaf03,eth0,MTX-F3-LAB-LAB1-SW03,20,MTX-F3-LAB-LAB1-SW03,20,1G,up,0,0,N/A,N/A,N/A,PASS
leaf03,swp16,MTX-DMZ-SW02,Eth1/15,N/A,N/A,10G,down,0,0,N/A,N/A,N/A,FAIL
leaf03,swp17,MTX-DMZ-SW03,Eth1/32,N/A,N/A,10G,down,0,0,N/A,N/A,N/A,FAIL
leaf03,swp18,MTX-DMZ-SW04,Eth1/21,N/A,N/A,10G,down,0,0,N/A,N/A,N/A,FAIL
leaf03,swp14,MTX-DMZ-SW01,Eth1/14,MTX-DMZ-SW01,Eth1/14,10G,up,0,0,QSFP+,Mellanox,MC2207130-001,PASS
leaf03,swp19,24:8a:07:ab:05:e6,24:8a:07:ab:05:e6,N/A,N/A,100G,up,0,0,QSFP+,Mellanox,MCP1600-E001,FAIL
leaf03,swp20,24:8a:07:ab:05:e7,24:8a:07:ab:05:e7,N/A,N/A,100G,up,0,0,QSFP+,Mellanox,MCP1600-E001,FAIL
leaf02,-,-,-,-,-,-,-,-,-,-,-,-,Device is not reachable
