{
  "br_default": {
    "counters": {
      "netstat": {
        "flag": "BMRU",
        "rx-drop": 0,
        "rx-error": 0,
        "rx-okay": 388489071,
        "rx-over": 0,
        "tx-drop": 0,
        "tx-error": 0,
        "tx-okay": 10,
        "tx-over": 0
      }
    },
    "link": {
      "mtu": 9216
    }
  },
  "eth0": {
    "counters": {
      "netstat": {
        "flag": "BMRU",
        "rx-drop": 0,
        "rx-error": 0,
        "rx-okay": 4484782,
        "rx-over": 0,
        "tx-drop": 0,
        "tx-error": 0,
        "tx-okay": 252621,
        "tx-over": 0
      }
    },
    "link": {
      "mtu": 1500
    }
  },
  "lo": {
    "counters": {
      "netstat": {
        "flag": "LRU",
        "rx-drop": 0,
        "rx-error": 0,
        "rx-okay": 17510471,
        "rx-over": 0,
        "tx-drop": 0,
        "tx-error": 0,
        "tx-okay": 17510471,
        "tx-over": 0
      }
    },
    "link": {
      "mtu": 65536
    }
  },
  "mgmt": {
    "counters": {
      "netstat": {
        "flag": "OmRU",
        "rx-drop": 0,
        "rx-error": 0,
        "rx-okay": 431663,
        "rx-over": 0,
        "tx-drop": 17333,
        "tx-error": 0,
        "tx-okay": 82,
        "tx-over": 0
      }
    },
    "link": {
      "mtu": 65575
    }
  },
  "swp1": {
    "counters": {
      "netstat": {
        "flag": "BMU",
        "rx-drop": 1,
        "rx-error": 0,
        "rx-okay": 743,
        "rx-over": 0,
        "tx-drop": 0,
        "tx-error": 0,
        "tx-okay": 754,
        "tx-over": 0
      }
    },
    "link": {
      "mtu": 9216
    }
  },
  "swp10": {
    "counters": {
      "netstat": {
        "flag": "BMRU",
        "rx-drop": 7952,
        "rx-error": 0,
        "rx-okay": 3911297014,
        "rx-over": 0,
        "tx-drop": 0,
        "tx-error": 0,
        "tx-okay": 22797600952,
        "tx-over": 0
      }
    },
    "link": {
      "mtu": 9216
    }
  },
  "swp11": {
    "counters": {
      "netstat": {
        "flag": "BMRU",
        "rx-drop": 7468,
        "rx-error": 0,
        "rx-okay": 141188,
        "rx-over": 0,
        "tx-drop": 0,
        "tx-error": 0,
        "tx-okay": 165633734,
        "tx-over": 0
      }
    },
    "link": {
      "mtu": 9216
    }
  },
  "swp12": {
    "counters": {
      "netstat": {
        "flag": "BMRU",
        "rx-drop": 4222,
        "rx-error": 0,
        "rx-okay": 22693191750,
        "rx-over": 0,
        "tx-drop": 0,
        "tx-error": 0,
        "tx-okay": 3973195148,
        "tx-over": 0
      }
    },
    "link": {
      "mtu": 9216
    }
  },
  "swp13": {
    "counters": {
      "netstat": {
        "flag": "BMRU",
        "rx-drop": 3319,
        "rx-error": 0,
        "rx-okay": 129479,
        "rx-over": 0,
        "tx-drop": 0,
        "tx-error": 0,
        "tx-okay": 165613618,
        "tx-over": 0
      }
    },
    "link": {
      "mtu": 9216
    }
  },
  "swp14": {
    "counters": {
      "netstat": {
        "flag": "BMRU",
        "rx-drop": 9612,
        "rx-error": 0,
        "rx-okay": 45304907,
        "rx-over": 0,
        "tx-drop": 0,
        "tx-error": 0,
        "tx-okay": 197660386,
        "tx-over": 0
      }
    },
    "link": {
      "mtu": 9216
    }
  },
  "swp15": {
    "counters": {
      "netstat": {
        "flag": "BMRU",
        "rx-drop": 9611,
        "rx-error": 0,
        "rx-okay": 145373,
        "rx-over": 0,
        "tx-drop": 0,
        "tx-error": 0,
        "tx-okay": 165632743,
        "tx-over": 0
      }
    },
    "link": {
      "mtu": 9216
    }
  },
  "swp16": {
    "counters": {
      "netstat": {
        "flag": "BMRU",
        "rx-drop": 36903,
        "rx-error": 0,
        "rx-okay": 36521113,
        "rx-over": 0,
        "tx-drop": 0,
        "tx-error": 0,
        "tx-okay": 201902937,
        "tx-over": 0
      }
    },
    "link": {
      "mtu": 9216
    }
  },
  "swp17": {
    "counters": {
      "netstat": {
        "flag": "BMRU",
        "rx-drop": 54104,
        "rx-error": 0,
        "rx-okay": 121069,
        "rx-over": 0,
        "tx-drop": 0,
        "tx-error": 0,
        "tx-okay": 165574208,
        "tx-over": 0
      }
    },
    "link": {
      "mtu": 9216
    }
  },
  "swp18": {
    "counters": {
      "netstat": {
        "flag": "BMRU",
        "rx-drop": 125223,
        "rx-error": 0,
        "rx-okay": 268021,
        "rx-over": 0,
        "tx-drop": 0,
        "tx-error": 0,
        "tx-okay": 165523218,
        "tx-over": 0
      }
    },
    "link": {
      "mtu": 9216
    }
  },
  "swp19": {
    "counters": {
      "netstat": {
        "flag": "BMRU",
        "rx-drop": 125226,
        "rx-error": 0,
        "rx-okay": 268019,
        "rx-over": 0,
        "tx-drop": 0,
        "tx-error": 0,
        "tx-okay": 165522932,
        "tx-over": 0
      }
    },
    "link": {
      "mtu": 9216
    }
  },
  "swp2": {
    "counters": {
      "netstat": {
        "flag": "BMU",
        "rx-drop": 1,
        "rx-error": 0,
        "rx-okay": 2,
        "rx-over": 0,
        "tx-drop": 0,
        "tx-error": 0,
        "tx-okay": 497,
        "tx-over": 0
      }
    },
    "link": {
      "mtu": 9216
    }
  },
  "swp20": {
    "counters": {
      "netstat": {
        "flag": "BMRU",
        "rx-drop": 124903,
        "rx-error": 0,
        "rx-okay": 267085,
        "rx-over": 0,
        "tx-drop": 0,
        "tx-error": 0,
        "tx-okay": 165513676,
        "tx-over": 0
      }
    },
    "link": {
      "mtu": 9216
    }
  },
  "swp21": {
    "counters": {
      "netstat": {
        "flag": "BMRU",
        "rx-drop": 125197,
        "rx-error": 0,
        "rx-okay": 268027,
        "rx-over": 0,
        "tx-drop": 0,
        "tx-error": 0,
        "tx-okay": 165521040,
        "tx-over": 0
      }
    },
    "link": {
      "mtu": 9216
    }
  },
  "swp22": {
    "counters": {
      "netstat": {
        "flag": "BMRU",
        "rx-drop": 125069,
        "rx-error": 0,
        "rx-okay": 267969,
        "rx-over": 0,
        "tx-drop": 0,
        "tx-error": 0,
        "tx-okay": 165515928,
        "tx-over": 0
      }
    },
    "link": {
      "mtu": 9216
    }
  },
  "swp23": {
    "counters": {
      "netstat": {
        "flag": "BMRU",
        "rx-drop": 125071,
        "rx-error": 0,
        "rx-okay": 267963,
        "rx-over": 0,
        "tx-drop": 0,
        "tx-error": 0,
        "tx-okay": 165517422,
        "tx-over": 0
      }
    },
    "link": {
      "mtu": 9216
    }
  },
  "swp24": {
    "counters": {
      "netstat": {
        "flag": "BMRU",
        "rx-drop": 125066,
        "rx-error": 0,
        "rx-okay": 267860,
        "rx-over": 0,
        "tx-drop": 0,
        "tx-error": 0,
        "tx-okay": 165522120,
        "tx-over": 0
      }
    },
    "link": {
      "mtu": 9216
    }
  },
  "swp25": {
    "counters": {
      "netstat": {
        "flag": "BMRU",
        "rx-drop": 125067,
        "rx-error": 0,
        "rx-okay": 267864,
        "rx-over": 0,
        "tx-drop": 0,
        "tx-error": 0,
        "tx-okay": 165521822,
        "tx-over": 0
      }
    },
    "link": {
      "mtu": 9216
    }
  },
  "swp26": {
    "counters": {
      "netstat": {
        "flag": "BMRU",
        "rx-drop": 125158,
        "rx-error": 0,
        "rx-okay": 268002,
        "rx-over": 0,
        "tx-drop": 0,
        "tx-error": 0,
        "tx-okay": 165516600,
        "tx-over": 0
      }
    },
    "link": {
      "mtu": 9216
    }
  },
  "swp27": {
    "counters": {
      "netstat": {
        "flag": "BMRU",
        "rx-drop": 125160,
        "rx-error": 0,
        "rx-okay": 268009,
        "rx-over": 0,
        "tx-drop": 0,
        "tx-error": 0,
        "tx-okay": 165510734,
        "tx-over": 0
      }
    },
    "link": {
      "mtu": 9216
    }
  },
  "swp28": {
    "counters": {
      "netstat": {
        "flag": "BMRU",
        "rx-drop": 125154,
        "rx-error": 0,
        "rx-okay": 268005,
        "rx-over": 0,
        "tx-drop": 0,
        "tx-error": 0,
        "tx-okay": 165509229,
        "tx-over": 0
      }
    },
    "link": {
      "mtu": 9216
    }
  },
  "swp29": {
    "counters": {
      "netstat": {
        "flag": "BMRU",
        "rx-drop": 125150,
        "rx-error": 0,
        "rx-okay": 267995,
        "rx-over": 0,
        "tx-drop": 0,
        "tx-error": 0,
        "tx-okay": 165514172,
        "tx-over": 0
      }
    },
    "link": {
      "mtu": 9216
    }
  },
  "swp3": {
    "counters": {
      "netstat": {
        "flag": "BMU",
        "rx-drop": 0,
        "rx-error": 0,
        "rx-okay": 18,
        "rx-over": 0,
        "tx-drop": 0,
        "tx-error": 0,
        "tx-okay": 23624,
        "tx-over": 0
      }
    },
    "link": {
      "mtu": 9216
    }
  },
  "swp30": {
    "counters": {
      "netstat": {
        "flag": "BMRU",
        "rx-drop": 144795,
        "rx-error": 0,
        "rx-okay": 189340527,
        "rx-over": 0,
        "tx-drop": 0,
        "tx-error": 0,
        "tx-okay": 66976738,
        "tx-over": 0
      }
    },
    "link": {
      "mtu": 9216
    }
  },
  "swp31": {
    "link": {
      "mtu": 9216
    }
  },
  "swp32": {
    "link": {
      "mtu": 9216
    }
  },
  "swp4": {
    "counters": {
      "netstat": {
        "flag": "BMU",
        "rx-drop": 0,
        "rx-error": 0,
        "rx-okay": 19464,
        "rx-over": 0,
        "tx-drop": 0,
        "tx-error": 0,
        "tx-okay": 23530,
        "tx-over": 0
      }
    },
    "link": {
      "mtu": 9216
    }
  },
  "swp5": {
    "counters": {
      "netstat": {
        "flag": "BMRU",
        "rx-drop": 28,
        "rx-error": 0,
        "rx-okay": 9526484,
        "rx-over": 0,
        "tx-drop": 122268,
        "tx-error": 0,
        "tx-okay": 175041418,
        "tx-over": 0
      }
    },
    "link": {
      "mtu": 9216
    }
  },
  "swp6": {
    "counters": {
      "netstat": {
        "flag": "BMRU",
        "rx-drop": 29,
        "rx-error": 0,
        "rx-okay": 16527625,
        "rx-over": 0,
        "tx-drop": 122013,
        "tx-error": 0,
        "tx-okay": 182052573,
        "tx-over": 0
      }
    },
    "link": {
      "mtu": 9216
    }
  },
  "swp7": {
    "counters": {
      "netstat": {
        "flag": "BMRU",
        "rx-drop": 28,
        "rx-error": 0,
        "rx-okay": 16591233,
        "rx-over": 0,
        "tx-drop": 122007,
        "tx-error": 0,
        "tx-okay": 182123567,
        "tx-over": 0
      }
    },
    "link": {
      "mtu": 9216
    }
  },
  "swp8": {
    "counters": {
      "netstat": {
        "flag": "BMRU",
        "rx-drop": 29,
        "rx-error": 0,
        "rx-okay": 8793390,
        "rx-over": 0,
        "tx-drop": 122435,
        "tx-error": 0,
        "tx-okay": 174291403,
        "tx-over": 0
      }
    },
    "link": {
      "mtu": 9216
    }
  },
  "swp9": {
    "counters": {
      "netstat": {
        "flag": "BMRU",
        "rx-drop": 29,
        "rx-error": 0,
        "rx-okay": 9123077,
        "rx-over": 0,
        "tx-drop": 122013,
        "tx-error": 0,
        "tx-okay": 171099861,
        "tx-over": 0
      }
    },
    "link": {
      "mtu": 9216
    }
  }
}