LocalRack,LocalRU,LocalHost,LocalPort,RemoteRack,RemoteRU,RemoteHost,RemotePort
02-07,6,leaf01,eth0,03-01,10,MTX-F1-LAB-LAB1-SW07-144-81,1/1/4
02-07,6,leaf01,swp14,03-01,12,MTX-DMZ-SW02,Eth1/14
02-07,8,leaf02,eth0,03-01,10,MTX-F1-LAB-LAB1-SW07-144-81,1/1/4
02-07,8,leaf02,eth1,03-01,14,MTX-F1-LAB-LAB1-SW08-145-82,1/1/5
02-07,8,leaf02,eth2,03-01,16,MTX-F1-LAB-LAB1-SW09-146-83,1/1/6
02-07,8,leaf02,eth3,03-01,18,MTX-F1-LAB-LAB1-SW09-146-84,1/1/7
02-07,10,leaf03,eth0,03-01,20,MTX-F3-LAB-LAB1-SW03,20
02-07,10,leaf03,swp16,03-01,12,MTX-DMZ-SW02,Eth1/15
02-07,10,leaf03,swp17,03-02,12,MTX-DMZ-SW03,Eth1/32
02-07,10,leaf03,swp18,03-02,14,MTX-DMZ-SW04,Eth1/21
02-07,10,leaf03,swp14,03-02,16,MTX-DMZ-SW01,Eth1/14
02-07,10,leaf03,swp19,04-01,10,24:8a:07:ab:15:e6,24:8a:07:ab:05:e6
02-07,10,leaf03,swp20,04-01,12,24:8a:07:ab:05:e7,24:8a:07:ab:15:e7
