Device,Psu Name,Psu State,Pass/Fail
leaf01,PS1,OK,PASS
leaf01,PS2,OK,PASS
leaf02,PS1,OK,PASS
leaf02,PS2,OK,PASS
leaf03,PS1,OK,PASS
leaf03,PS2,OK,PASS
leaf04,PS1,OK,PASS
leaf04,PS2,OK,PASS
leaf05,PS1,OK,PASS
leaf05,PS2,OK,PASS
