Device,Module Name,Power Meter,Voltage State,Pass/Fail
leaf01,MGMT,acdc-monitor1,OK,PASS
leaf01,MGMT,acdc-monitor1,OK,PASS
leaf01,MGMT,acdc-monitor1,OK,PASS
leaf01,MGMT,acdc-monitor1,OK,PASS
leaf01,MGMT,acdc-monitor1,OK,PASS
leaf01,MGMT,acdc-monitor1,OK,PASS
leaf01,MGMT,acdc-monitor1,OK,PASS
leaf01,MGMT,acdc-monitor1,OK,PASS
leaf01,MGMT,acdc-monitor2,OK,PASS
leaf01,MGMT,acdc-monitor2,OK,PASS
leaf01,MGMT,acdc-monitor2,OK,PASS
leaf01,MGMT,acdc-monitor2,OK,PASS
leaf01,MGMT,acdc-monitor2,OK,PASS
leaf01,MGMT,acdc-monitor2,OK,PASS
leaf01,MGMT,acdc-monitor2,OK,PASS
leaf01,MGMT,acdc-monitor2,OK,PASS
leaf01,MGMT,VoltMonitor1,OK,PASS
leaf01,MGMT,VoltMonitor1,OK,PASS
leaf01,MGMT,VoltMonitor2,OK,PASS
leaf01,MGMT,VoltMonitor2,OK,PASS
leaf01,MGMT,VoltMonitor3,OK,PASS
leaf01,MGMT,VoltMonitor4,OK,PASS
leaf01,MGMT,VoltMonitor4,OK,PASS
leaf01,MGMT,VoltMonitor5,OK,PASS
leaf01,MGMT,VoltMonitor5,OK,PASS
leaf01,MGMT,COMEX,OK,PASS
leaf01,MGMT,COMEX,OK,PASS
leaf01,PS1,power-mon,OK,PASS
leaf01,PS2,power-mon,OK,PASS
leaf02,MGMT,acdc-monitor1,OK,PASS
leaf02,MGMT,acdc-monitor1,OK,PASS
leaf02,MGMT,acdc-monitor1,OK,PASS
leaf02,MGMT,acdc-monitor1,OK,PASS
leaf02,MGMT,acdc-monitor1,OK,PASS
leaf02,MGMT,acdc-monitor1,OK,PASS
leaf02,MGMT,acdc-monitor1,OK,PASS
leaf02,MGMT,acdc-monitor1,OK,PASS
leaf02,MGMT,acdc-monitor2,OK,PASS
leaf02,MGMT,acdc-monitor2,OK,PASS
leaf02,MGMT,acdc-monitor2,OK,PASS
leaf02,MGMT,acdc-monitor2,OK,PASS
leaf02,MGMT,acdc-monitor2,OK,PASS
leaf02,MGMT,acdc-monitor2,OK,PASS
leaf02,MGMT,acdc-monitor2,OK,PASS
leaf02,MGMT,acdc-monitor2,OK,PASS
leaf02,MGMT,VoltMonitor1,OK,PASS
leaf02,MGMT,VoltMonitor1,OK,PASS
leaf02,MGMT,VoltMonitor2,OK,PASS
leaf02,MGMT,VoltMonitor2,OK,PASS
leaf02,MGMT,VoltMonitor3,OK,PASS
leaf02,MGMT,VoltMonitor4,OK,PASS
leaf02,MGMT,VoltMonitor4,OK,PASS
leaf02,MGMT,VoltMonitor5,OK,PASS
leaf02,MGMT,VoltMonitor5,OK,PASS
leaf02,MGMT,COMEX,OK,PASS
leaf02,MGMT,COMEX,OK,PASS
leaf02,PS1,power-mon,OK,PASS
leaf02,PS2,power-mon,OK,PASS
leaf03,MGMT,acdc-monitor1,OK,PASS
leaf03,MGMT,acdc-monitor1,OK,PASS
leaf03,MGMT,acdc-monitor1,OK,PASS
leaf03,MGMT,acdc-monitor1,OK,PASS
leaf03,MGMT,acdc-monitor1,OK,PASS
leaf03,MGMT,acdc-monitor1,OK,PASS
leaf03,MGMT,acdc-monitor1,OK,PASS
leaf03,MGMT,acdc-monitor1,OK,PASS
leaf03,MGMT,acdc-monitor2,OK,PASS
leaf03,MGMT,acdc-monitor2,OK,PASS
leaf03,MGMT,acdc-monitor2,OK,PASS
leaf03,MGMT,acdc-monitor2,OK,PASS
leaf03,MGMT,acdc-monitor2,OK,PASS
leaf03,MGMT,acdc-monitor2,OK,PASS
leaf03,MGMT,acdc-monitor2,OK,PASS
leaf03,MGMT,acdc-monitor2,OK,PASS
leaf03,MGMT,VoltMonitor1,OK,PASS
leaf03,MGMT,VoltMonitor1,OK,PASS
leaf03,MGMT,VoltMonitor2,OK,PASS
leaf03,MGMT,VoltMonitor2,OK,PASS
leaf03,MGMT,VoltMonitor3,OK,PASS
leaf03,MGMT,VoltMonitor4,OK,PASS
leaf03,MGMT,VoltMonitor4,OK,PASS
leaf03,MGMT,VoltMonitor5,OK,PASS
leaf03,MGMT,VoltMonitor5,OK,PASS
leaf03,MGMT,COMEX,OK,PASS
leaf03,MGMT,COMEX,OK,PASS
leaf03,PS1,power-mon,OK,PASS
leaf03,PS2,power-mon,OK,PASS
leaf04,MGMT,acdc-monitor1,OK,PASS
leaf04,MGMT,acdc-monitor1,OK,PASS
leaf04,MGMT,acdc-monitor1,OK,PASS
leaf04,MGMT,acdc-monitor1,OK,PASS
leaf04,MGMT,acdc-monitor1,OK,PASS
leaf04,MGMT,acdc-monitor1,OK,PASS
leaf04,MGMT,acdc-monitor1,OK,PASS
leaf04,MGMT,acdc-monitor1,OK,PASS
leaf04,MGMT,acdc-monitor2,OK,PASS
leaf04,MGMT,acdc-monitor2,OK,PASS
leaf04,MGMT,acdc-monitor2,OK,PASS
leaf04,MGMT,acdc-monitor2,OK,PASS
leaf04,MGMT,acdc-monitor2,OK,PASS
leaf04,MGMT,acdc-monitor2,OK,PASS
leaf04,MGMT,acdc-monitor2,OK,PASS
leaf04,MGMT,acdc-monitor2,OK,PASS
leaf04,MGMT,VoltMonitor1,OK,PASS
leaf04,MGMT,VoltMonitor1,OK,PASS
leaf04,MGMT,VoltMonitor2,OK,PASS
leaf04,MGMT,VoltMonitor2,OK,PASS
leaf04,MGMT,VoltMonitor3,OK,PASS
leaf04,MGMT,VoltMonitor4,OK,PASS
leaf04,MGMT,VoltMonitor4,OK,PASS
leaf04,MGMT,VoltMonitor5,OK,PASS
leaf04,MGMT,VoltMonitor5,OK,PASS
leaf04,MGMT,COMEX,OK,PASS
leaf04,MGMT,COMEX,OK,PASS
leaf04,PS1,power-mon,OK,PASS
leaf04,PS2,power-mon,OK,PASS
leaf05,MGMT,acdc-monitor1,OK,PASS
leaf05,MGMT,acdc-monitor1,OK,PASS
leaf05,MGMT,acdc-monitor1,OK,PASS
leaf05,MGMT,acdc-monitor1,OK,PASS
leaf05,MGMT,acdc-monitor1,OK,PASS
leaf05,MGMT,acdc-monitor1,OK,PASS
leaf05,MGMT,acdc-monitor1,OK,PASS
leaf05,MGMT,acdc-monitor1,OK,PASS
leaf05,MGMT,acdc-monitor2,OK,PASS
leaf05,MGMT,acdc-monitor2,OK,PASS
leaf05,MGMT,acdc-monitor2,OK,PASS
leaf05,MGMT,acdc-monitor2,OK,PASS
leaf05,MGMT,acdc-monitor2,OK,PASS
leaf05,MGMT,acdc-monitor2,OK,PASS
leaf05,MGMT,acdc-monitor2,OK,PASS
leaf05,MGMT,acdc-monitor2,OK,PASS
leaf05,MGMT,VoltMonitor1,OK,PASS
leaf05,MGMT,VoltMonitor1,OK,PASS
leaf05,MGMT,VoltMonitor2,OK,PASS
leaf05,MGMT,VoltMonitor2,OK,PASS
leaf05,MGMT,VoltMonitor3,OK,PASS
leaf05,MGMT,VoltMonitor4,OK,PASS
leaf05,MGMT,VoltMonitor4,OK,PASS
leaf05,MGMT,VoltMonitor5,OK,PASS
leaf05,MGMT,VoltMonitor5,OK,PASS
leaf05,MGMT,COMEX,OK,PASS
leaf05,MGMT,COMEX,OK,PASS
leaf05,PS1,power-mon,OK,PASS
leaf05,PS2,power-mon,OK,PASS
